Capítulo 8 Data Wrangling | Apostila de Cálculo
…
You can select on multiple criteria by separating them with commas.

amoral <- disgust %>% filter(
  moral1 == 0, 
  moral2 == 0,
  moral3 == 0, 
  moral4 == 0,
  moral5 == 0,
  moral6 == 0,
  moral7 == 0
)
amoral

## # A tibble: 216 × 24
##       id user_id date       moral1 moral2 moral3 moral4 moral5 moral6 moral7
##    <dbl>   <dbl> <date>      <dbl>  <dbl>  <dbl>  <dbl>  <dbl>  <dbl>  <dbl>
##  1   710   44759 2008-08-26      0      0      0      0      0      0      0
##  2  7036   88227 2011-01-16      0      0      0      0      0      0      0
##  3    43  156076 2008-07-18      0      0      0      0      0      0      0
##  4    89  156634 2008-07-22      0      0      0      0      0      0      0
##  5    93  156722 2008-07-23      0      0      0      0      0      0      0
##  6   170  157975 2008-08-03      0      0      0      0      0      0      0
##  7   414  161765 2008-08-21      0      0      0      0      0      0      0
##  8   475  162435 2008-08-22      0      0      0      0      0      0      0
##  9   560  163796 2008-08-24      0      0      0      0      0      0      0
## 10   638  164674 2008-08-25      0      0      0      0      0      0      0
## # … with 206 more rows, and 14 more variables: sexual1 <dbl>, sexual2 <dbl>,
## #   sexual3 <dbl>, sexual4 <dbl>, sexual5 <dbl>, sexual6 <dbl>, sexual7 <dbl>,
## #   pathogen1 <dbl>, pathogen2 <dbl>, pathogen3 <dbl>, pathogen4 <dbl>,
## #   pathogen5 <dbl>, pathogen6 <dbl>, pathogen7 <dbl>

You can use the symbols &, |, and ! to mean “and”, “or”, and “not”. You can also use other operators to make equations.

# everyone who chose either 0 or 7 for question moral1
moral_extremes <- disgust %>% 
  filter(moral1 == 0 | moral1 == 7)
moral_extremes

## # A tibble: 2,208 × 24
##       id user_id date       moral1 moral2 moral3 moral4 moral5 moral6 moral7
##    <dbl>   <dbl> <date>      <dbl>  <dbl>  <dbl>  <dbl>  <dbl>  <dbl>  <dbl>
##  1 13332    2118 2012-01-02      0      1      1      1      1      2      1
##  2  6902    5469 2010-12-06      0      1      3      4      1      0      1
##  3  1772   11381 2008-11-03      0      0      0      4      0      0      0
##  4   710   44759 2008-08-26      0      0      0      0      0      0      0
##  5 20306   56604 2013-01-17      0      1      0      5      3      1      1
##  6  7122   71437 2011-02-10      0      1      0      3      1      0      1
##  7  1230   87584 2008-10-10      0      4      6      4      6      6      0
##  8  7036   88227 2011-01-16      0      0      0      0      0      0      0
##  9 14330   92576 2012-02-23      0      6      0      4      0      5      4
## 10  1821  101243 2008-11-04      0      5      4      5      5      2      2
## # … with 2,198 more rows, and 14 more variables: sexual1 <dbl>, sexual2 <dbl>,
## #   sexual3 <dbl>, sexual4 <dbl>, sexual5 <dbl>, sexual6 <dbl>, sexual7 <dbl>,
## #   pathogen1 <dbl>, pathogen2 <dbl>, pathogen3 <dbl>, pathogen4 <dbl>,
## #   pathogen5 <dbl>, pathogen6 <dbl>, pathogen7 <dbl>

# everyone who chose the same answer for all moral questions
moral_consistent <- disgust %>% 
  filter(
    moral2 == moral1 & 
    moral3 == moral1 & 
    moral4 == moral1 &
    moral5 == moral1 &
    moral6 == moral1 &
    moral7 == moral1
  )
moral_consistent

## # A tibble: 623 × 24
##       id user_id date       moral1 moral2 moral3 moral4 moral5 moral6 moral7
##    <dbl>   <dbl> <date>      <dbl>  <dbl>  <dbl>  <dbl>  <dbl>  <dbl>  <dbl>
##  1    23    2311 2008-07-15      4      4      4      4      4      4      4
##  2 26188   34951 2014-01-04      6      6      6      6      6      6      6
##  3   710   44759 2008-08-26      0      0      0      0      0      0      0
##  4  2673   67077 2009-01-05      6      6      6      6      6      6      6
##  5   152   72482 2008-07-30      6      6      6      6      6      6      6
##  6  7036   88227 2011-01-16      0      0      0      0      0      0      0
##  7 18898   93123 2012-11-03      6      6      6      6      6      6      6
##  8  3560   95309 2009-05-04      5      5      5      5      5      5      5
##  9 15649  104323 2012-05-01      6      6      6      6      6      6      6
## 10 35250  133155 2015-07-16      6      6      6      6      6      6      6
## # … with 613 more rows, and 14 more variables: sexual1 <dbl>, sexual2 <dbl>,
## #   sexual3 <dbl>, sexual4 <dbl>, sexual5 <dbl>, sexual6 <dbl>, sexual7 <dbl>,
## #   pathogen1 <dbl>, pathogen2 <dbl>, pathogen3 <dbl>, pathogen4 <dbl>,
## #   pathogen5 <dbl>, pathogen6 <dbl>, pathogen7 <dbl>

# everyone who did not answer 7 for all 7 moral questions
moral_no_ceiling <- disgust %>%
  filter(moral1+moral2+moral3+moral4+moral5+moral6+moral7 != 7*7)
moral_no_ceiling

## # A tibble: 19,224 × 24
##       id user_id date       moral1 moral2 moral3 moral4 moral5 moral6 moral7
##    <dbl>   <dbl> <date>      <dbl>  <dbl>  <dbl>  <dbl>  <dbl>  <dbl>  <dbl>
##  1  1199       0 2008-10-07      5      6      4      6      5      5      6
##  2     1       1 2008-07-10      2      2      1      2      1      1      1
##  3 13332    2118 2012-01-02      0      1      1      1      1      2      1
##  4    23    2311 2008-07-15      4      4      4      4      4      4      4
##  5  7980    4458 2011-09-05      3      4      3      4      4      3      3
##  6   552    4651 2008-08-23      2      4      3      5      5      5      3
##  7 37829    4976 2016-03-22      6      6      6      0      6      0      0
##  8  6902    5469 2010-12-06      0      1      3      4      1      0      1
##  9  6158    6066 2010-04-18      4      5      6      5      5      4      4
## 10  4850    6093 2009-11-09      1      2      2      2      1      2      1
## # … with 19,214 more rows, and 14 more variables: sexual1 <dbl>, sexual2 <dbl>,
## #   sexual3 <dbl>, sexual4 <dbl>, sexual5 <dbl>, sexual6 <dbl>, sexual7 <dbl>,
## #   pathogen1 <dbl>, pathogen2 <dbl>, pathogen3 <dbl>, pathogen4 <dbl>,
## #   pathogen5 <dbl>, pathogen6 <dbl>, pathogen7 <dbl>

8.3.2.1 Match operator (%in%)

Sometimes you need to exclude some participant IDs for reasons that can’t be described in code. The match operator (%in%) is useful here for testing if a column value is in a list. Surround the equation with parentheses and put ! in front to test that a value is not in the list.

no_researchers <- disgust %>%
  filter(!(user_id %in% c(1,2)))
no_researchers

## # A tibble: 19,998 × 24
##       id user_id date       moral1 moral2 moral3 moral4 moral5 moral6 moral7
##    <dbl>   <dbl> <date>      <dbl>  <dbl>  <dbl>  <dbl>  <dbl>  <dbl>  <dbl>
##  1  1199       0 2008-10-07      5      6      4      6      5      5      6
##  2 13332    2118 2012-01-02      0      1      1      1      1      2      1
##  3    23    2311 2008-07-15      4      4      4      4      4      4      4
##  4  1160    3630 2008-10-06      1      5     NA      5      5      5      1
##  5  7980    4458 2011-09-05      3      4      3      4      4      3      3
##  6   552    4651 2008-08-23      2      4      3      5      5      5      3
##  7 37829    4976 2016-03-22      6      6      6      0      6      0      0
##  8  6902    5469 2010-12-06      0      1      3      4      1      0      1
##  9  6158    6066 2010-04-18      4      5      6      5      5      4      4
## 10  4850    6093 2009-11-09      1      2      2      2      1      2      1
## # … with 19,988 more rows, and 14 more variables: sexual1 <dbl>, sexual2 <dbl>,
## #   sexual3 <dbl>, sexual4 <dbl>, sexual5 <dbl>, sexual6 <dbl>, sexual7 <dbl>,
## #   pathogen1 <dbl>, pathogen2 <dbl>, pathogen3 <dbl>, pathogen4 <dbl>,
## #   pathogen5 <dbl>, pathogen6 <dbl>, pathogen7 <dbl>

8.3.2.2 Dates

You can use the lubridate package to work with dates. For example, you can use the year() function to return just the year from the date column and then select only data collected in 2010.

disgust2010 <- disgust %>%
  filter(year(date) == 2010)
disgust2010

## # A tibble: 1,514 × 24
##       id user_id date       moral1 moral2 moral3 moral4 moral5 moral6 moral7
##    <dbl>   <dbl> <date>      <dbl>  <dbl>  <dbl>  <dbl>  <dbl>  <dbl>  <dbl>
##  1  6902    5469 2010-12-06      0      1      3      4      1      0      1
##  2  6158    6066 2010-04-18      4      5      6      5      5      4      4
##  3  6362    7129 2010-06-09      4      4      4      4      3      3      2
##  4  6302   39318 2010-05-20      2      4      1      4      5      6      0
##  5  5429   43029 2010-01-02      1      1      1      3      6      4      2
##  6  6732   71955 2010-10-15      2      5      3      6      3      2      5
##  7  6367   84622 2010-06-13      4      6      6      6      6      6      6
##  8  6476   93120 2010-07-12      3      6      4      6      5      3      4
##  9  5778   96537 2010-03-05      5      5      3      4      5      5      5
## 10  6181  131633 2010-04-23      0      6      4      6      0      6      6
## # … with 1,504 more rows, and 14 more variables: sexual1 <dbl>, sexual2 <dbl>,
## #   sexual3 <dbl>, sexual4 <dbl>, sexual5 <dbl>, sexual6 <dbl>, sexual7 <dbl>,
## #   pathogen1 <dbl>, pathogen2 <dbl>, pathogen3 <dbl>, pathogen4 <dbl>,
## #   pathogen5 <dbl>, pathogen6 <dbl>, pathogen7 <dbl>
…
#dmy(200223)

Or select data from at least 5 years ago. You can use the range function to check the minimum and maximum dates in the resulting dataset.

disgust_5ago <- disgust %>%
  filter(date < today() - dyears(5))
disgust_5ago

## # A tibble: 20,000 × 24
##       id user_id date       moral1 moral2 moral3 moral4 moral5 moral6 moral7
##    <dbl>   <dbl> <date>      <dbl>  <dbl>  <dbl>  <dbl>  <dbl>  <dbl>  <dbl>
##  1  1199       0 2008-10-07      5      6      4      6      5      5      6
##  2     1       1 2008-07-10      2      2      1      2      1      1      1
##  3  1599       2 2008-10-27      1      1      1      1     NA     NA      1
##  4 13332    2118 2012-01-02      0      1      1      1      1      2      1
##  5    23    2311 2008-07-15      4      4      4      4      4      4      4
##  6  1160    3630 2008-10-06      1      5     NA      5      5      5      1
##  7  7980    4458 2011-09-05      3      4      3      4      4      3      3
##  8   552    4651 2008-08-23      2      4      3      5      5      5      3
##  9 37829    4976 2016-03-22      6      6      6      0      6      0      0
## 10  6902    5469 2010-12-06      0      1      3      4      1      0      1
## # … with 19,990 more rows, and 14 more variables: sexual1 <dbl>, sexual2 <dbl>,
## #   sexual3 <dbl>, sexual4 <dbl>, sexual5 <dbl>, sexual6 <dbl>, sexual7 <dbl>,
## #   pathogen1 <dbl>, pathogen2 <dbl>, pathogen3 <dbl>, pathogen4 <dbl>,
## #   pathogen5 <dbl>, pathogen6 <dbl>, pathogen7 <dbl>
…
dyears(5)

## [1] "157788000s (~5 years)"

8.3.3 arrange()

Sort your dataset using arrange(). You will find yourself needing to sort data in R much less than you do in Excel, since you don’t need to have rows next to each other in order to, for example, calculate group means. But arrange() can be useful when preparing data from display in tables.

disgust_order <- disgust %>%
  arrange(date, moral1)

disgust_order

## # A tibble: 20,000 × 24
##       id user_id date       moral1 moral2 moral3 moral4 moral5 moral6 moral7
##    <dbl>   <dbl> <date>      <dbl>  <dbl>  <dbl>  <dbl>  <dbl>  <dbl>  <dbl>
##  1     1       1 2008-07-10      2      2      1      2      1      1      1
##  2     3  155324 2008-07-11      2      4      3      5      2      1      4
##  3     6  155386 2008-07-12      2      4      0      4      0      0      0
##  4     7  155409 2008-07-12      4      5      5      4      5      1      5
##  5     4  155366 2008-07-12      6      6      6      3      6      6      6
##  6     5  155370 2008-07-12      6      6      4      6      6      6      6
##  7    14  155129 2008-07-13      2      6      0      5      2      0      2
##  8     8  155427 2008-07-13      2      5      2      6      3      2      3
##  9    10  155429 2008-07-13      2      6      4      6      0      5      3
## 10     9  155425 2008-07-13      3      6      3      5      6      3      5
## # … with 19,990 more rows, and 14 more variables: sexual1 <dbl>, sexual2 <dbl>,
## #   sexual3 <dbl>, sexual4 <dbl>, sexual5 <dbl>, sexual6 <dbl>, sexual7 <dbl>,
## #   pathogen1 <dbl>, pathogen2 <dbl>, pathogen3 <dbl>, pathogen4 <dbl>,
## #   pathogen5 <dbl>, pathogen6 <dbl>, pathogen7 <dbl>

Reverse the order using desc()

disgust_order_desc <- disgust %>%
  arrange(desc(date))
disgust_order_desc

## # A tibble: 20,000 × 24
##       id user_id date       moral1 moral2 moral3 moral4 moral5 moral6 moral7
##    <dbl>   <dbl> <date>      <dbl>  <dbl>  <dbl>  <dbl>  <dbl>  <dbl>  <dbl>
##  1 39456  356866 2017-08-21      1      1      1      1      1      1      1
##  2 39447  128727 2017-08-13      2      4      1      2      2      5      3
##  3 39371  152955 2017-06-13      6      6      3      6      6      6      6
##  4 39342   48303 2017-05-22      4      5      4      4      6      4      5
##  5 39159  151633 2017-04-04      4      5      6      5      3      6      2
##  6 38942  370464 2017-02-01      1      5      0      6      5      5      5
##  7 38710  453237 2016-11-24      0      0      0      0      0      0      0
##  8 38359  449337 2016-09-20      6      6      6      5      6      4      5
##  9 38222   51771 2016-08-04      2      6      4      6      6      5      4
## 10 38020  452964 2016-05-22      2      6      4      6      6      3      6
## # … with 19,990 more rows, and 14 more variables: sexual1 <dbl>, sexual2 <dbl>,
## #   sexual3 <dbl>, sexual4 <dbl>, sexual5 <dbl>, sexual6 <dbl>, sexual7 <dbl>,
## #   pathogen1 <dbl>, pathogen2 <dbl>, pathogen3 <dbl>, pathogen4 <dbl>,
## #   pathogen5 <dbl>, pathogen6 <dbl>, pathogen7 <dbl>
…
Refer to other columns by their names (unquoted). You can add more than one column in the same mutate function, just separate the columns with a comma. Once you make a new column, you can use it in further column definitions e.g., total below).

disgust_total <- disgust %>%
  mutate(
    pathogen = pathogen1 + pathogen2 + pathogen3 + pathogen4 + pathogen5 + pathogen6 + pathogen7,
    moral = moral1 + moral2 + moral3 + moral4 + moral5 + moral6 + moral7,
    sexual = sexual1 + sexual2 + sexual3 + sexual4 + sexual5 + sexual6 + sexual7,
    total = pathogen + moral + sexual,
    user_id = paste0("U", user_id)
  )

disgust_total

## # A tibble: 20,000 × 28
##       id user_id date       moral1 moral2 moral3 moral4 moral5 moral6 moral7
##    <dbl> <chr>   <date>      <dbl>  <dbl>  <dbl>  <dbl>  <dbl>  <dbl>  <dbl>
##  1  1199 U0      2008-10-07      5      6      4      6      5      5      6
##  2     1 U1      2008-07-10      2      2      1      2      1      1      1
##  3  1599 U2      2008-10-27      1      1      1      1     NA     NA      1
##  4 13332 U2118   2012-01-02      0      1      1      1      1      2      1
##  5    23 U2311   2008-07-15      4      4      4      4      4      4      4
##  6  1160 U3630   2008-10-06      1      5     NA      5      5      5      1
##  7  7980 U4458   2011-09-05      3      4      3      4      4      3      3
##  8   552 U4651   2008-08-23      2      4      3      5      5      5      3
##  9 37829 U4976   2016-03-22      6      6      6      0      6      0      0
## 10  6902 U5469   2010-12-06      0      1      3      4      1      0      1
## # … with 19,990 more rows, and 18 more variables: sexual1 <dbl>, sexual2 <dbl>,
## #   sexual3 <dbl>, sexual4 <dbl>, sexual5 <dbl>, sexual6 <dbl>, sexual7 <dbl>,
## #   pathogen1 <dbl>, pathogen2 <dbl>, pathogen3 <dbl>, pathogen4 <dbl>,
## #   pathogen5 <dbl>, pathogen6 <dbl>, pathogen7 <dbl>, pathogen <dbl>,
## #   moral <dbl>, sexual <dbl>, total <dbl>

disgust_total %>% 
  select(pathogen, moral, sexual, total)

## # A tibble: 20,000 × 4
##    pathogen moral sexual total
##       <dbl> <dbl>  <dbl> <dbl>
##  1       33    37     15    85
##  2       19    10     12    41
##  3       NA    NA     NA    NA
##  4       35     7     21    63
##  5       30    28     13    71
##  6       15    NA      8    NA
##  7       25    24     21    70
##  8       34    27     30    91
##  9       30    24      0    54
## 10       25    10     31    66
## # … with 19,990 more rows
…
You can also use mutate after group_by. The following example calculates subject-mean-centered scores by grouping the scores by user_id and then subtracting the group-specific mean from each score. Note the use of gather to tidy the data into a long format first.

disgust_smc <- disgust %>%
  gather("question", "score", moral1:pathogen7) %>%
  group_by(user_id) %>%
  mutate(score_smc = score - mean(score, na.rm = TRUE)) %>% 
  ungroup()

disgust_smc 

## # A tibble: 420,000 × 6
##       id user_id date       question score score_smc
##    <dbl>   <dbl> <date>     <chr>    <dbl>     <dbl>
##  1  1199       0 2008-10-07 moral1       5    0.952 
##  2     1       1 2008-07-10 moral1       2    0.0476
##  3  1599       2 2008-10-27 moral1       1    0     
##  4 13332    2118 2012-01-02 moral1       0   -3     
##  5    23    2311 2008-07-15 moral1       4    0.619 
##  6  1160    3630 2008-10-06 moral1       1   -1.25  
##  7  7980    4458 2011-09-05 moral1       3   -0.333 
##  8   552    4651 2008-08-23 moral1       2   -2.33  
##  9 37829    4976 2016-03-22 moral1       6    3.43  
## 10  6902    5469 2010-12-06 moral1       0   -3.14  
## # … with 419,990 more rows
…
8.3.7 All Together

A lot of what we did above would be easier if the data were tidy, so let’s do that first. Then we can use group_by to calculate the domain scores.

After that, we can spread out the 3 domains, calculate the total score, remove any rows with a missing (NA) total, and calculate mean values by year.

disgust_tidy <- disgust %>%
  gather("question", "score", moral1:pathogen7) %>%
  separate(question, c("domain","q_num"), sep = -1) %>%
  group_by(id, user_id, date, domain) %>%
  summarise(score = mean(score), .groups = "drop")

disgust_tidy

## # A tibble: 60,000 × 5
##       id user_id date       domain   score
##    <dbl>   <dbl> <date>     <chr>    <dbl>
##  1     1       1 2008-07-10 moral    1.43 
##  2     1       1 2008-07-10 pathogen 2.71 
##  3     1       1 2008-07-10 sexual   1.71 
##  4     3  155324 2008-07-11 moral    3    
##  5     3  155324 2008-07-11 pathogen 2.57 
##  6     3  155324 2008-07-11 sexual   1.86 
##  7     4  155366 2008-07-12 moral    5.57 
##  8     4  155366 2008-07-12 pathogen 4    
##  9     4  155366 2008-07-12 sexual   0.429
## 10     5  155370 2008-07-12 moral    5.71 
## # … with 59,990 more rows

disgust_scored <- disgust_tidy %>%
  spread(domain, score) %>%
  mutate(
    total = moral + sexual + pathogen,
    year = year(date)
  ) %>%
  filter(!is.na(total)) %>%
  arrange(user_id) 

disgust_scored

## # A tibble: 18,490 × 8
##       id user_id date       moral pathogen sexual total  year
##    <dbl>   <dbl> <date>     <dbl>    <dbl>  <dbl> <dbl> <dbl>
##  1  1199       0 2008-10-07  5.29     4.71   2.14 12.1   2008
##  2     1       1 2008-07-10  1.43     2.71   1.71  5.86  2008
##  3 13332    2118 2012-01-02  1        5      3     9     2012
##  4    23    2311 2008-07-15  4        4.29   1.86 10.1   2008
##  5  7980    4458 2011-09-05  3.43     3.57   3    10     2011
##  6   552    4651 2008-08-23  3.86     4.86   4.29 13     2008
##  7 37829    4976 2016-03-22  3.43     4.29   0     7.71  2016
##  8  6902    5469 2010-12-06  1.43     3.57   4.43  9.43  2010
##  9  6158    6066 2010-04-18  4.71     5.14   3    12.9   2010
## 10  4850    6093 2009-11-09  1.57     2.43   1.71  5.71  2009
## # … with 18,480 more rows
…
