Capítulo 5 mutate(), transmute() | dplyr e ggplot2
…
            dplyr e ggplot2

Capítulo 5 mutate(), transmute()

5.1 mutate()

Create new variable

#   Create variable: average between highway and city miles per gallon
df <- mutate(df,
             `avg miles per gallon` = (cty + hwy) / 2)
df#YO

## # A tibble: 234 × 12
##    manufac…¹ model displ  year   cyl trans drv     cty   hwy fl    class avg m…²
##    <chr>     <chr> <dbl> <int> <int> <chr> <chr> <int> <int> <chr> <chr>   <dbl>
##  1 audi      a4      1.8  1999     4 auto… f        18    29 p     comp…    23.5
##  2 audi      a4      1.8  1999     4 manu… f        21    29 p     comp…    25  
##  3 audi      a4      2    2008     4 manu… f        20    31 p     comp…    25.5
##  4 audi      a4      2    2008     4 auto… f        21    30 p     comp…    25.5
##  5 audi      a4      2.8  1999     6 auto… f        16    26 p     comp…    21  
##  6 audi      a4      2.8  1999     6 manu… f        18    26 p     comp…    22  
##  7 audi      a4      3.1  2008     6 auto… f        18    27 p     comp…    22.5
##  8 audi      a4 q…   1.8  1999     4 manu… 4        18    26 p     comp…    22  
##  9 audi      a4 q…   1.8  1999     4 auto… 4        16    25 p     comp…    20.5
## 10 audi      a4 q…   2    2008     4 manu… 4        20    28 p     comp…    24  
## # … with 224 more rows, and abbreviated variable names ¹​manufacturer,
## #   ²​`avg miles per gallon`

#   Create variable "car" & "cyl / trans"
df <- mutate(df,
             car = paste(manufacturer, model, sep = " "),
             `cyl / trans` = paste(cyl, " cylinders", " / ", trans, " transmission", sep = ""))
df#YO

## # A tibble: 234 × 14
##    manufac…¹ model displ  year   cyl trans drv     cty   hwy fl    class avg m…²
##    <chr>     <chr> <dbl> <int> <int> <chr> <chr> <int> <int> <chr> <chr>   <dbl>
##  1 audi      a4      1.8  1999     4 auto… f        18    29 p     comp…    23.5
##  2 audi      a4      1.8  1999     4 manu… f        21    29 p     comp…    25  
##  3 audi      a4      2    2008     4 manu… f        20    31 p     comp…    25.5
##  4 audi      a4      2    2008     4 auto… f        21    30 p     comp…    25.5
##  5 audi      a4      2.8  1999     6 auto… f        16    26 p     comp…    21  
##  6 audi      a4      2.8  1999     6 manu… f        18    26 p     comp…    22  
##  7 audi      a4      3.1  2008     6 auto… f        18    27 p     comp…    22.5
##  8 audi      a4 q…   1.8  1999     4 manu… 4        18    26 p     comp…    22  
##  9 audi      a4 q…   1.8  1999     4 auto… 4        16    25 p     comp…    20.5
## 10 audi      a4 q…   2    2008     4 manu… 4        20    28 p     comp…    24  
## # … with 224 more rows, 2 more variables: car <chr>, `cyl / trans` <chr>, and
## #   abbreviated variable names ¹​manufacturer, ²​`avg miles per gallon`

5.2 transmute()

Create new variable and drop other variables

transmute(df,
          `avg miles per gallon` = (cty + hwy) / 2)

## # A tibble: 234 × 1
##    `avg miles per gallon`
##                     <dbl>
##  1                   23.5
##  2                   25  
##  3                   25.5
##  4                   25.5
##  5                   21  
##  6                   22  
##  7                   22.5
##  8                   22  
##  9                   20.5
## 10                   24  
## # … with 224 more rows

transmute(df,
          car = paste(manufacturer, model, sep = " "),
          `cyl / trans` = paste(cyl, " cylinders", " / ", trans, " transmission", sep = ""))

## # A tibble: 234 × 2
##    car             `cyl / trans`                        
##    <chr>           <chr>                                
##  1 audi a4         4 cylinders / auto(l5) transmission  
##  2 audi a4         4 cylinders / manual(m5) transmission
##  3 audi a4         4 cylinders / manual(m6) transmission
##  4 audi a4         4 cylinders / auto(av) transmission  
##  5 audi a4         6 cylinders / auto(l5) transmission  
##  6 audi a4         6 cylinders / manual(m5) transmission
##  7 audi a4         6 cylinders / auto(av) transmission  
##  8 audi a4 quattro 4 cylinders / manual(m5) transmission
##  9 audi a4 quattro 4 cylinders / auto(l5) transmission  
## 10 audi a4 quattro 4 cylinders / manual(m6) transmission
## # … with 224 more rows
