Capítulo 4 YO hice todo lo que está abajo! | dplyr e ggplot2
…
            dplyr e ggplot2

Capítulo 4 YO hice todo lo que está abajo!

  df %>% 
    filter(between(cty,15, 22)) %>%
    select(cty) #YO

## # A tibble: 143 × 1
##      cty
##    <int>
##  1    18
##  2    21
##  3    20
##  4    21
##  5    16
##  6    18
##  7    18
##  8    18
##  9    16
## 10    20
## # … with 133 more rows

select(df, matches("[abc]")) #YO

## # A tibble: 234 × 6
##    manufacturer  year   cyl trans        cty class  
##    <chr>        <int> <int> <chr>      <int> <chr>  
##  1 audi          1999     4 auto(l5)      18 compact
##  2 audi          1999     4 manual(m5)    21 compact
##  3 audi          2008     4 manual(m6)    20 compact
##  4 audi          2008     4 auto(av)      21 compact
##  5 audi          1999     6 auto(l5)      16 compact
##  6 audi          1999     6 manual(m5)    18 compact
##  7 audi          2008     6 auto(av)      18 compact
##  8 audi          1999     4 manual(m5)    18 compact
##  9 audi          1999     4 auto(l5)      16 compact
## 10 audi          2008     4 manual(m6)    20 compact
## # … with 224 more rows

select(df, starts_with("m"), starts_with("c")) #YO

## # A tibble: 234 × 5
##    manufacturer model        cyl   cty class  
##    <chr>        <chr>      <int> <int> <chr>  
##  1 audi         a4             4    18 compact
##  2 audi         a4             4    21 compact
##  3 audi         a4             4    20 compact
##  4 audi         a4             4    21 compact
##  5 audi         a4             6    16 compact
##  6 audi         a4             6    18 compact
##  7 audi         a4             6    18 compact
##  8 audi         a4 quattro     4    18 compact
##  9 audi         a4 quattro     4    16 compact
## 10 audi         a4 quattro     4    20 compact
## # … with 224 more rows

select(df, ends_with("l"), ends_with("s")) #YO

## # A tibble: 234 × 6
##    model      displ   cyl fl    trans      class  
##    <chr>      <dbl> <int> <chr> <chr>      <chr>  
##  1 a4           1.8     4 p     auto(l5)   compact
##  2 a4           1.8     4 p     manual(m5) compact
##  3 a4           2       4 p     manual(m6) compact
##  4 a4           2       4 p     auto(av)   compact
##  5 a4           2.8     6 p     auto(l5)   compact
##  6 a4           2.8     6 p     manual(m5) compact
##  7 a4           3.1     6 p     auto(av)   compact
##  8 a4 quattro   1.8     4 p     manual(m5) compact
##  9 a4 quattro   1.8     4 p     auto(l5)   compact
## 10 a4 quattro   2       4 p     manual(m6) compact
## # … with 224 more rows
…
library(dplyr)
library(tidyr)
library(ggplot2)

# Inspect data
#help("mpg")

df <- mpg
#View(df) # check table
print(df) # print to console

## # A tibble: 234 × 11
##    manufacturer model      displ  year   cyl trans drv     cty   hwy fl    class
##    <chr>        <chr>      <dbl> <int> <int> <chr> <chr> <int> <int> <chr> <chr>
##  1 audi         a4           1.8  1999     4 auto… f        18    29 p     comp…
##  2 audi         a4           1.8  1999     4 manu… f        21    29 p     comp…
##  3 audi         a4           2    2008     4 manu… f        20    31 p     comp…
##  4 audi         a4           2    2008     4 auto… f        21    30 p     comp…
##  5 audi         a4           2.8  1999     6 auto… f        16    26 p     comp…
##  6 audi         a4           2.8  1999     6 manu… f        18    26 p     comp…
##  7 audi         a4           3.1  2008     6 auto… f        18    27 p     comp…
##  8 audi         a4 quattro   1.8  1999     4 manu… 4        18    26 p     comp…
##  9 audi         a4 quattro   1.8  1999     4 auto… 4        16    25 p     comp…
## 10 audi         a4 quattro   2    2008     4 manu… 4        20    28 p     comp…
## # … with 224 more rows
…
nrow(df); ncol(df) # rows ~ cols

## [1] 234

## [1] 11

# 1.3 Manipulate variables (columns) - select(), rename()

# select() - Columns selection

#   Extract columns car: manufacturer, model, year
select(df, manufacturer, model, year) # just extract columns

## # A tibble: 234 × 3
##    manufacturer model       year
##    <chr>        <chr>      <int>
##  1 audi         a4          1999
##  2 audi         a4          1999
##  3 audi         a4          2008
##  4 audi         a4          2008
##  5 audi         a4          1999
##  6 audi         a4          1999
##  7 audi         a4          2008
##  8 audi         a4 quattro  1999
##  9 audi         a4 quattro  1999
## 10 audi         a4 quattro  2008
## # … with 224 more rows

df.car.info <- select(df, manufacturer, model, year)
rm(df.car.info)

#   Extract columns that begin with letter "m"
select(df, starts_with("m"))

## # A tibble: 234 × 2
##    manufacturer model     
##    <chr>        <chr>     
##  1 audi         a4        
##  2 audi         a4        
##  3 audi         a4        
##  4 audi         a4        
##  5 audi         a4        
##  6 audi         a4        
##  7 audi         a4        
##  8 audi         a4 quattro
##  9 audi         a4 quattro
## 10 audi         a4 quattro
## # … with 224 more rows

#   Extract columns that contain letter "r"
select(df, contains("r"))

## # A tibble: 234 × 4
##    manufacturer  year trans      drv  
##    <chr>        <int> <chr>      <chr>
##  1 audi          1999 auto(l5)   f    
##  2 audi          1999 manual(m5) f    
##  3 audi          2008 manual(m6) f    
##  4 audi          2008 auto(av)   f    
##  5 audi          1999 auto(l5)   f    
##  6 audi          1999 manual(m5) f    
##  7 audi          2008 auto(av)   f    
##  8 audi          1999 manual(m5) 4    
##  9 audi          1999 auto(l5)   4    
## 10 audi          2008 manual(m6) 4    
## # … with 224 more rows

#   Extract columns that end with letter "y"
select(df, ends_with("y"))

## # A tibble: 234 × 2
##      cty   hwy
##    <int> <int>
##  1    18    29
##  2    21    29
##  3    20    31
##  4    21    30
##  5    16    26
##  6    18    26
##  7    18    27
##  8    18    26
##  9    16    25
## 10    20    28
## # … with 224 more rows

#   Select column by columns index
select(df, 1:3)      # first three columns

## # A tibble: 234 × 3
##    manufacturer model      displ
##    <chr>        <chr>      <dbl>
##  1 audi         a4           1.8
##  2 audi         a4           1.8
##  3 audi         a4           2  
##  4 audi         a4           2  
##  5 audi         a4           2.8
##  6 audi         a4           2.8
##  7 audi         a4           3.1
##  8 audi         a4 quattro   1.8
##  9 audi         a4 quattro   1.8
## 10 audi         a4 quattro   2  
## # … with 224 more rows

select(df, c(2,5,7)) # second, fifth and seventh column

## # A tibble: 234 × 3
##    model        cyl drv  
##    <chr>      <int> <chr>
##  1 a4             4 f    
##  2 a4             4 f    
##  3 a4             4 f    
##  4 a4             4 f    
##  5 a4             6 f    
##  6 a4             6 f    
##  7 a4             6 f    
##  8 a4 quattro     4 4    
##  9 a4 quattro     4 4    
## 10 a4 quattro     4 4    
## # … with 224 more rows

select(df, (ncol(df)-2):ncol(df)) # last three columns

## # A tibble: 234 × 3
##      hwy fl    class  
##    <int> <chr> <chr>  
##  1    29 p     compact
##  2    29 p     compact
##  3    31 p     compact
##  4    30 p     compact
##  5    26 p     compact
##  6    26 p     compact
##  7    27 p     compact
##  8    26 p     compact
##  9    25 p     compact
## 10    28 p     compact
## # … with 224 more rows

# rename() - Rename columns

#   Rename columns "manufacturer" and "model"
df1 <- rename(df, 
              mnfc = manufacturer,
              mod = model)

# select columns and rename in one take
select(df,
       mnfc = manufacturer,
       mod = model,
       everything()) # selects all other columns

## # A tibble: 234 × 11
##    mnfc  mod        displ  year   cyl trans      drv     cty   hwy fl    class  
##    <chr> <chr>      <dbl> <int> <int> <chr>      <chr> <int> <int> <chr> <chr>  
##  1 audi  a4           1.8  1999     4 auto(l5)   f        18    29 p     compact
##  2 audi  a4           1.8  1999     4 manual(m5) f        21    29 p     compact
##  3 audi  a4           2    2008     4 manual(m6) f        20    31 p     compact
##  4 audi  a4           2    2008     4 auto(av)   f        21    30 p     compact
##  5 audi  a4           2.8  1999     6 auto(l5)   f        16    26 p     compact
##  6 audi  a4           2.8  1999     6 manual(m5) f        18    26 p     compact
##  7 audi  a4           3.1  2008     6 auto(av)   f        18    27 p     compact
##  8 audi  a4 quattro   1.8  1999     4 manual(m5) 4        18    26 p     compact
##  9 audi  a4 quattro   1.8  1999     4 auto(l5)   4        16    25 p     compact
## 10 audi  a4 quattro   2    2008     4 manual(m6) 4        20    28 p     compact
## # … with 224 more rows
